/Users/Tanya/Projects/epam_upskill/SortingApp/src/test/java/service/DataUtilsConvertEmptyTest.java
/Users/Tanya/Projects/epam_upskill/SortingApp/src/test/java/service/DataUtilsConvertMoreThanTenTest.java
/Users/Tanya/Projects/epam_upskill/SortingApp/src/test/java/service/DataUtilsSortingTest.java
/Users/Tanya/Projects/epam_upskill/SortingApp/src/test/java/service/DataUtilsConvertingTest.java
/Users/Tanya/Projects/epam_upskill/SortingApp/src/test/java/service/DataUtilsPrintingTest.java
